\relax 
\providecommand\hyper@newdestlabel[2]{}
\providecommand\HyperFirstAtBeginDocument{\AtBeginDocument}
\HyperFirstAtBeginDocument{\ifx\hyper@anchor\@undefined
\global\let\oldcontentsline\contentsline
\gdef\contentsline#1#2#3#4{\oldcontentsline{#1}{#2}{#3}}
\global\let\oldnewlabel\newlabel
\gdef\newlabel#1#2{\newlabelxx{#1}#2}
\gdef\newlabelxx#1#2#3#4#5#6{\oldnewlabel{#1}{{#2}{#3}}}
\AtEndDocument{\ifx\hyper@anchor\@undefined
\let\contentsline\oldcontentsline
\let\newlabel\oldnewlabel
\fi}
\fi}
\global\let\hyper@last\relax 
\gdef\HyperFirstAtBeginDocument#1{#1}
\providecommand\HyField@AuxAddToFields[1]{}
\providecommand\HyField@AuxAddToCoFields[2]{}
\@writefile{toc}{\contentsline {section}{\numberline {1}Overall Strategy and Design}{2}{section.1}}
\@writefile{toc}{\contentsline {subsection}{\numberline {\textbf  {1.a}}Design}{2}{subsection.1.1}}
\@writefile{toc}{\contentsline {subsection}{\numberline {\textbf  {1.b}}Robot Strategy}{3}{subsection.1.2}}
\@writefile{toc}{\contentsline {subsection}{\numberline {\textbf  {1.c}}Experiment Strategy}{4}{subsection.1.3}}
\@writefile{toc}{\contentsline {section}{\numberline {2}The Code}{5}{section.2}}
\@writefile{toc}{\contentsline {subsection}{\numberline {\textbf  {2.a}}Flowchart}{5}{subsection.2.1}}
\@writefile{toc}{\contentsline {subsubsection}{\numberline {\textbf  {2.a}.1}Functions}{5}{subsubsection.2.1.1}}
\@writefile{toc}{\contentsline {subsubsection}{\numberline {\textbf  {2.a}.2}Tasks}{13}{subsubsection.2.1.2}}
\@writefile{toc}{\contentsline {subsubsection}{\numberline {\textbf  {2.a}.3}Main}{15}{subsubsection.2.1.3}}
\@writefile{toc}{\contentsline {subsection}{\numberline {\textbf  {2.b}}Pseudocode}{16}{subsection.2.2}}
\@writefile{toc}{\contentsline {subsubsection}{\numberline {\textbf  {2.b}.1}Functions}{16}{subsubsection.2.2.1}}
\@writefile{lof}{\contentsline {figure}{\numberline {2}{\ignorespaces findHuman\relax }}{16}{figure.caption.14}}
\@writefile{lof}{\contentsline {figure}{\numberline {3}{\ignorespaces initialize\relax }}{16}{figure.caption.15}}
\@writefile{lof}{\contentsline {figure}{\numberline {4}{\ignorespaces question1\relax }}{16}{figure.caption.16}}
\@writefile{lof}{\contentsline {figure}{\numberline {5}{\ignorespaces getToKnowMe\relax }}{17}{figure.caption.17}}
\@writefile{lof}{\contentsline {figure}{\numberline {6}{\ignorespaces question2\relax }}{17}{figure.caption.18}}
\@writefile{lof}{\contentsline {figure}{\numberline {7}{\ignorespaces questionJ\relax }}{17}{figure.caption.19}}
\@writefile{lof}{\contentsline {figure}{\numberline {8}{\ignorespaces questionS\relax }}{18}{figure.caption.20}}
\@writefile{lof}{\contentsline {figure}{\numberline {9}{\ignorespaces questionF\relax }}{18}{figure.caption.21}}
\@writefile{toc}{\contentsline {subsubsection}{\numberline {\textbf  {2.b}.2}Tasks}{19}{subsubsection.2.2.2}}
\@writefile{lof}{\contentsline {figure}{\numberline {10}{\ignorespaces Task 1\relax }}{19}{figure.caption.22}}
\@writefile{lof}{\contentsline {figure}{\numberline {11}{\ignorespaces Task 1\relax }}{19}{figure.caption.23}}
\@writefile{toc}{\contentsline {subsubsection}{\numberline {\textbf  {2.b}.3}Main}{19}{subsubsection.2.2.3}}
\@writefile{lof}{\contentsline {figure}{\numberline {12}{\ignorespaces Task 1\relax }}{19}{figure.caption.24}}
\@writefile{toc}{\contentsline {section}{\numberline {3}Robot Performance}{20}{section.3}}
\@writefile{toc}{\contentsline {subsection}{\numberline {\textbf  {3.a}}Sensors}{20}{subsection.3.1}}
\@writefile{lof}{\contentsline {figure}{\numberline {13}{\ignorespaces Touch Sensor Results\relax }}{20}{figure.caption.25}}
\@writefile{lof}{\contentsline {figure}{\numberline {14}{\ignorespaces Sonar Sensor Results\relax }}{20}{figure.caption.26}}
\@writefile{lof}{\contentsline {figure}{\numberline {15}{\ignorespaces Sound Sensor Results\relax }}{20}{figure.caption.27}}
\@writefile{toc}{\contentsline {subsection}{\numberline {\textbf  {3.b}}Turing Test Results}{21}{subsection.3.2}}
\@writefile{lof}{\contentsline {figure}{\numberline {16}{\ignorespaces Turing Test Results\relax }}{21}{figure.caption.28}}
\@writefile{lof}{\contentsline {figure}{\numberline {17}{\ignorespaces Happy Participant\relax }}{21}{figure.caption.29}}
\@writefile{toc}{\contentsline {section}{\numberline {4}Creativity}{22}{section.4}}
\@writefile{toc}{\contentsline {subsection}{\numberline {\textbf  {4.a}}Design}{22}{subsection.4.1}}
\@writefile{toc}{\contentsline {subsection}{\numberline {\textbf  {4.b}}Software}{22}{subsection.4.2}}
\@writefile{toc}{\contentsline {section}{\numberline {5}Conclusion}{22}{section.5}}
