\BOOKMARK [1][-]{section.1}{Introduction}{}% 1
\BOOKMARK [1][-]{section.2}{Specific Aims}{}% 2
\BOOKMARK [1][-]{section.3}{Materials}{}% 3
\BOOKMARK [1][-]{section.4}{Methods}{}% 4
\BOOKMARK [1][-]{section.5}{Results}{}% 5
\BOOKMARK [1][-]{section.6}{Discussion}{}% 6
\BOOKMARK [1][-]{section.7}{Lab Questions}{}% 7
