\contentsline {section}{\numberline {1}Introduction}{2}{section.1}
\contentsline {section}{\numberline {2}Specific Aims}{2}{section.2}
\contentsline {section}{\numberline {3}Materials}{2}{section.3}
\contentsline {section}{\numberline {4}Methods}{3}{section.4}
\contentsline {subsection}{\numberline {\textbf {4.a}}Vehicle 2}{3}{subsection.4.1}
\contentsline {subsection}{\numberline {\textbf {4.b}}Vehicle 3}{4}{subsection.4.2}
\contentsline {section}{\numberline {5}Results}{4}{section.5}
\contentsline {section}{\numberline {6}Discussion}{5}{section.6}
