\relax 
\providecommand\hyper@newdestlabel[2]{}
\providecommand\HyperFirstAtBeginDocument{\AtBeginDocument}
\HyperFirstAtBeginDocument{\ifx\hyper@anchor\@undefined
\global\let\oldcontentsline\contentsline
\gdef\contentsline#1#2#3#4{\oldcontentsline{#1}{#2}{#3}}
\global\let\oldnewlabel\newlabel
\gdef\newlabel#1#2{\newlabelxx{#1}#2}
\gdef\newlabelxx#1#2#3#4#5#6{\oldnewlabel{#1}{{#2}{#3}}}
\AtEndDocument{\ifx\hyper@anchor\@undefined
\let\contentsline\oldcontentsline
\let\newlabel\oldnewlabel
\fi}
\fi}
\global\let\hyper@last\relax 
\gdef\HyperFirstAtBeginDocument#1{#1}
\providecommand\HyField@AuxAddToFields[1]{}
\providecommand\HyField@AuxAddToCoFields[2]{}
\@writefile{toc}{\contentsline {section}{\numberline {1}Introduction}{2}{section.1}}
\@writefile{toc}{\contentsline {section}{\numberline {2}Specific Aims}{2}{section.2}}
\@writefile{toc}{\contentsline {section}{\numberline {3}Materials}{2}{section.3}}
\@writefile{toc}{\contentsline {section}{\numberline {4}Methods}{3}{section.4}}
\@writefile{toc}{\contentsline {subsection}{\numberline {\textbf  {4.a}}Vehicle 2}{3}{subsection.4.1}}
\@writefile{lof}{\contentsline {figure}{\numberline {1}{\ignorespaces Pseudocode\relax }}{3}{figure.caption.2}}
\@writefile{toc}{\contentsline {subsection}{\numberline {\textbf  {4.b}}Vehicle 3}{4}{subsection.4.2}}
\@writefile{lof}{\contentsline {figure}{\numberline {2}{\ignorespaces Pseudocode\relax }}{4}{figure.caption.3}}
\@writefile{toc}{\contentsline {section}{\numberline {5}Results}{4}{section.5}}
\@writefile{lof}{\contentsline {figure}{\numberline {3}{\ignorespaces Left Color/Light Sensor\relax }}{5}{figure.caption.4}}
\@writefile{lof}{\contentsline {figure}{\numberline {4}{\ignorespaces Right Color/Light Sensor\relax }}{5}{figure.caption.5}}
\@writefile{toc}{\contentsline {section}{\numberline {6}Discussion}{5}{section.6}}
