\relax 
\providecommand\hyper@newdestlabel[2]{}
\providecommand\HyperFirstAtBeginDocument{\AtBeginDocument}
\HyperFirstAtBeginDocument{\ifx\hyper@anchor\@undefined
\global\let\oldcontentsline\contentsline
\gdef\contentsline#1#2#3#4{\oldcontentsline{#1}{#2}{#3}}
\global\let\oldnewlabel\newlabel
\gdef\newlabel#1#2{\newlabelxx{#1}#2}
\gdef\newlabelxx#1#2#3#4#5#6{\oldnewlabel{#1}{{#2}{#3}}}
\AtEndDocument{\ifx\hyper@anchor\@undefined
\let\contentsline\oldcontentsline
\let\newlabel\oldnewlabel
\fi}
\fi}
\global\let\hyper@last\relax 
\gdef\HyperFirstAtBeginDocument#1{#1}
\providecommand\HyField@AuxAddToFields[1]{}
\providecommand\HyField@AuxAddToCoFields[2]{}
\@writefile{toc}{\contentsline {section}{\numberline {1}Introduction}{2}{section.1}}
\@writefile{toc}{\contentsline {section}{\numberline {2}Specific Aims}{2}{section.2}}
\@writefile{toc}{\contentsline {section}{\numberline {3}Materials}{2}{section.3}}
\@writefile{toc}{\contentsline {section}{\numberline {4}Methods}{2}{section.4}}
\@writefile{toc}{\contentsline {subsection}{\numberline {\textbf  {4.a}}Part 1}{2}{subsection.4.1}}
\@writefile{toc}{\contentsline {subsubsection}{\numberline {\textbf  {4.a}.1}Move Robot}{3}{subsubsection.4.1.1}}
\@writefile{toc}{\contentsline {paragraph}{Forward - Fast:}{3}{section*.2}}
\@writefile{toc}{\contentsline {paragraph}{Forward - Slow:}{3}{section*.3}}
\@writefile{toc}{\contentsline {paragraph}{Backwards - Fast:}{3}{section*.4}}
\@writefile{toc}{\contentsline {paragraph}{Backwards - Slow:}{3}{section*.5}}
\@writefile{toc}{\contentsline {subsubsection}{\numberline {\textbf  {4.a}.2}Spin Robot}{4}{subsubsection.4.1.2}}
\@writefile{toc}{\contentsline {paragraph}{Spin - Fast:}{4}{section*.6}}
\@writefile{toc}{\contentsline {paragraph}{Spin - Slow:}{4}{section*.7}}
\@writefile{toc}{\contentsline {subsection}{\numberline {\textbf  {4.b}}Part 2}{4}{subsection.4.2}}
\@writefile{toc}{\contentsline {subsubsection}{\numberline {\textbf  {4.b}.1}Move Robot}{5}{subsubsection.4.2.1}}
\@writefile{toc}{\contentsline {paragraph}{Forward - Fast:}{5}{section*.8}}
\@writefile{toc}{\contentsline {paragraph}{Forward - Slow:}{5}{section*.9}}
\@writefile{toc}{\contentsline {paragraph}{Backwards - Fast:}{5}{section*.10}}
\@writefile{toc}{\contentsline {paragraph}{Backwards - Slow:}{5}{section*.11}}
\@writefile{toc}{\contentsline {subsubsection}{\numberline {\textbf  {4.b}.2}Spin Robot}{6}{subsubsection.4.2.2}}
\@writefile{toc}{\contentsline {paragraph}{Spin - Fast:}{6}{section*.12}}
\@writefile{toc}{\contentsline {paragraph}{Spin - Slow:}{6}{section*.13}}
\@writefile{toc}{\contentsline {subsection}{\numberline {\textbf  {4.c}}Part 3}{6}{subsection.4.3}}
\@writefile{toc}{\contentsline {section}{\numberline {5}Results}{7}{section.5}}
\@writefile{toc}{\contentsline {subsection}{\numberline {\textbf  {5.a}}Part 1}{7}{subsection.5.1}}
\@writefile{toc}{\contentsline {subsubsection}{\numberline {\textbf  {5.a}.1}Move Robot}{7}{subsubsection.5.1.1}}
\@writefile{toc}{\contentsline {paragraph}{Forward - Fast:}{7}{section*.14}}
\@writefile{toc}{\contentsline {paragraph}{Forward - Slow:}{7}{section*.16}}
\@writefile{toc}{\contentsline {paragraph}{Backwards - Fast:}{7}{section*.18}}
\@writefile{toc}{\contentsline {paragraph}{Backwards - Slow:}{8}{section*.20}}
\@writefile{toc}{\contentsline {subsubsection}{\numberline {\textbf  {5.a}.2}Spin Robot}{8}{subsubsection.5.1.2}}
\@writefile{toc}{\contentsline {paragraph}{Spin - Fast:}{8}{section*.22}}
\@writefile{toc}{\contentsline {paragraph}{Spin - Slow:}{8}{section*.24}}
\@writefile{toc}{\contentsline {subsection}{\numberline {\textbf  {5.b}}Part 2}{9}{subsection.5.2}}
\@writefile{toc}{\contentsline {subsubsection}{\numberline {\textbf  {5.b}.1}Move Robot}{9}{subsubsection.5.2.1}}
\@writefile{toc}{\contentsline {paragraph}{Forward - Fast:}{9}{section*.26}}
\@writefile{toc}{\contentsline {paragraph}{Forward - Slow:}{9}{section*.28}}
\@writefile{toc}{\contentsline {paragraph}{Backwards - Fast:}{9}{section*.30}}
\@writefile{toc}{\contentsline {paragraph}{Backwards - Slow:}{10}{section*.32}}
\@writefile{toc}{\contentsline {subsubsection}{\numberline {\textbf  {5.b}.2}Spin Robot}{10}{subsubsection.5.2.2}}
\@writefile{toc}{\contentsline {paragraph}{Spin - Fast:}{10}{section*.34}}
\@writefile{toc}{\contentsline {paragraph}{Spin - Slow:}{10}{section*.36}}
\@writefile{toc}{\contentsline {subsection}{\numberline {\textbf  {5.c}}Part 3}{10}{subsection.5.3}}
\@writefile{toc}{\contentsline {section}{\numberline {6}Discussion}{11}{section.6}}
\@writefile{toc}{\contentsline {section}{\numberline {7}Lab Questions}{11}{section.7}}
