\relax 
\providecommand\hyper@newdestlabel[2]{}
\providecommand\HyperFirstAtBeginDocument{\AtBeginDocument}
\HyperFirstAtBeginDocument{\ifx\hyper@anchor\@undefined
\global\let\oldcontentsline\contentsline
\gdef\contentsline#1#2#3#4{\oldcontentsline{#1}{#2}{#3}}
\global\let\oldnewlabel\newlabel
\gdef\newlabel#1#2{\newlabelxx{#1}#2}
\gdef\newlabelxx#1#2#3#4#5#6{\oldnewlabel{#1}{{#2}{#3}}}
\AtEndDocument{\ifx\hyper@anchor\@undefined
\let\contentsline\oldcontentsline
\let\newlabel\oldnewlabel
\fi}
\fi}
\global\let\hyper@last\relax 
\gdef\HyperFirstAtBeginDocument#1{#1}
\providecommand\HyField@AuxAddToFields[1]{}
\providecommand\HyField@AuxAddToCoFields[2]{}
\@writefile{toc}{\contentsline {section}{\numberline {1}Overall Strategy and Design}{2}{section.1}}
\@writefile{toc}{\contentsline {subsection}{\numberline {\textbf  {1.a}}Classification}{2}{subsection.1.1}}
\@writefile{toc}{\contentsline {subsection}{\numberline {\textbf  {1.b}}Swiss Robots}{2}{subsection.1.2}}
\@writefile{toc}{\contentsline {subsection}{\numberline {\textbf  {1.c}}Design}{2}{subsection.1.3}}
\@writefile{lof}{\contentsline {figure}{\numberline {1}{\ignorespaces Design Inspiration\relax }}{3}{figure.caption.2}}
\@writefile{lof}{\contentsline {figure}{\numberline {2}{\ignorespaces Our Robot, Marta\relax }}{3}{figure.caption.3}}
\@writefile{toc}{\contentsline {subsection}{\numberline {\textbf  {1.d}}Strategy}{3}{subsection.1.4}}
\@writefile{toc}{\contentsline {section}{\numberline {2}The Code}{5}{section.2}}
\@writefile{toc}{\contentsline {subsection}{\numberline {\textbf  {2.a}}Flowchart}{5}{subsection.2.1}}
\@writefile{toc}{\contentsline {subsection}{\numberline {\textbf  {2.b}}Pseudocode}{6}{subsection.2.2}}
\@writefile{lof}{\contentsline {figure}{\numberline {3}{\ignorespaces Pseudocode\relax }}{6}{figure.caption.5}}
\@writefile{toc}{\contentsline {section}{\numberline {3}Robot Performance}{7}{section.3}}
\@writefile{toc}{\contentsline {subsection}{\numberline {\textbf  {3.a}}Sensors}{7}{subsection.3.1}}
\@writefile{lof}{\contentsline {figure}{\numberline {4}{\ignorespaces Pink Box Initial (Left Sensor)\relax }}{8}{figure.caption.6}}
\@writefile{lof}{\contentsline {figure}{\numberline {5}{\ignorespaces Pink Box Post (Left Sensor)\relax }}{9}{figure.caption.7}}
\@writefile{lof}{\contentsline {figure}{\numberline {6}{\ignorespaces Pink Box Initial (Right Sensor)\relax }}{10}{figure.caption.8}}
\@writefile{lof}{\contentsline {figure}{\numberline {7}{\ignorespaces Pink Box Post (Right Sensor)\relax }}{11}{figure.caption.9}}
\@writefile{lof}{\contentsline {figure}{\numberline {8}{\ignorespaces Ninja Turtle Heart Initial (Left Sensor)\relax }}{12}{figure.caption.10}}
\@writefile{lof}{\contentsline {figure}{\numberline {9}{\ignorespaces Ninja Turtle Heart Post (Left Sensor)\relax }}{13}{figure.caption.11}}
\@writefile{lof}{\contentsline {figure}{\numberline {10}{\ignorespaces Ninja Turtle Heart Initial (Right Sensor)\relax }}{14}{figure.caption.12}}
\@writefile{lof}{\contentsline {figure}{\numberline {11}{\ignorespaces Ninja Turtle Heart Post (Right Sensor)\relax }}{15}{figure.caption.13}}
\@writefile{lof}{\contentsline {figure}{\numberline {12}{\ignorespaces Other Heart Initial (Left Sensor)\relax }}{16}{figure.caption.14}}
\@writefile{lof}{\contentsline {figure}{\numberline {13}{\ignorespaces Other Heart Post (Left Sensor)\relax }}{17}{figure.caption.15}}
\@writefile{lof}{\contentsline {figure}{\numberline {14}{\ignorespaces Other Heart Initial (Right Sensor)\relax }}{18}{figure.caption.16}}
\@writefile{lof}{\contentsline {figure}{\numberline {15}{\ignorespaces Other Heart Post (Right Sensor)\relax }}{19}{figure.caption.17}}
\@writefile{toc}{\contentsline {subsection}{\numberline {\textbf  {3.b}}Actuators}{20}{subsection.3.2}}
\@writefile{toc}{\contentsline {subsection}{\numberline {\textbf  {3.c}}Performance Outside of Class}{20}{subsection.3.3}}
\@writefile{toc}{\contentsline {subsection}{\numberline {\textbf  {3.d}}Performance During the Challenge}{21}{subsection.3.4}}
\@writefile{toc}{\contentsline {subsection}{\numberline {\textbf  {3.e}}Repeatability}{22}{subsection.3.5}}
\@writefile{toc}{\contentsline {section}{\numberline {4}Creativity}{22}{section.4}}
\@writefile{toc}{\contentsline {section}{\numberline {5}Conclusion}{23}{section.5}}
