\contentsline {section}{\numberline {1}Introduction}{2}{section.1}
\contentsline {section}{\numberline {2}Specific Aims}{2}{section.2}
\contentsline {section}{\numberline {3}Materials}{2}{section.3}
\contentsline {section}{\numberline {4}Methods}{3}{section.4}
\contentsline {section}{\numberline {5}Results}{6}{section.5}
\contentsline {section}{\numberline {6}Discussion}{6}{section.6}
\contentsline {section}{\numberline {7}Lab Questions}{6}{section.7}
